<?xml version="1.0" encoding="UTF-8"?>
<svg width="27px" height="32px" viewBox="0 0 27 32" version="1.1" xmlns="http://www.w3.org/2000/svg" xmlns:xlink="http://www.w3.org/1999/xlink">
    <title></title>
    <g id="Page-1" stroke="none" stroke-width="1" fill="none" fill-rule="evenodd">
        <g id="09---Proyectos" transform="translate(-168.000000, -1327.000000)" fill="#0176DE" fill-rule="nonzero">
            <path d="M193.3125,1359 C194.244141,1359 195,1358.23214 195,1357.28571 L195,1336.71429 C195,1335.76786 194.455078,1334.44643 193.804688,1333.78571 L188.320312,1328.21429 C187.669922,1327.55357 186.369141,1327 185.4375,1327 L169.6875,1327 C168.755859,1327 168,1327.76786 168,1328.71429 L168,1357.28571 C168,1358.23214 168.755859,1359 169.6875,1359 L193.3125,1359 Z M192.75,1356.71429 L170.25,1356.71429 L170.25,1329.28571 L183.75,1329.28571 L183.75,1336.71429 C183.75,1337.66071 184.505859,1338.42857 185.4375,1338.42857 L192.75,1338.42857 L192.75,1356.71429 Z M192.609375,1336.14286 L186,1336.14286 L186,1329.42857 C186.298828,1329.53571 186.597656,1329.69643 186.720703,1329.82143 L192.222656,1335.41071 C192.345703,1335.53571 192.503906,1335.83929 192.609375,1336.14286 Z M180.480469,1354.42857 L180.480469,1352.53571 L179.162109,1352.53571 L180.972656,1349.66071 C181.183594,1349.32143 181.289062,1349.05357 181.341797,1349.05357 L181.376953,1349.05357 C181.394531,1349.125 181.429688,1349.17857 181.464844,1349.23214 C181.535156,1349.375 181.640625,1349.48214 181.763672,1349.66071 L183.644531,1352.53571 L182.308594,1352.53571 L182.308594,1354.42857 L187.423828,1354.42857 L187.423828,1352.53571 L186.228516,1352.53571 L182.853516,1347.66071 L186.28125,1342.625 L187.458984,1342.625 L187.458984,1340.71429 L182.554688,1340.71429 L182.554688,1342.625 L183.855469,1342.625 L182.044922,1345.46429 C181.833984,1345.80357 181.675781,1346.07143 181.675781,1346.05357 L181.640625,1346.05357 C181.623047,1345.98214 181.587891,1345.92857 181.552734,1345.875 C181.482422,1345.75 181.394531,1345.625 181.253906,1345.46429 L179.390625,1342.625 L180.726562,1342.625 L180.726562,1340.71429 L175.628906,1340.71429 L175.628906,1342.625 L176.824219,1342.625 L180.146484,1347.48214 L176.736328,1352.53571 L175.541016,1352.53571 L175.541016,1354.42857 L180.480469,1354.42857 Z" id=""></path>
        </g>
    </g>
</svg>