<svg xmlns="http://www.w3.org/2000/svg" width="32" height="35" viewBox="0 0 32 35">
    <path fill="#FFF" d="M16.46 10.125c.708-.506 1.552-.614 2.315-.297.486.202.896.547 1.186.998.016.026.09.137.377.51.77 1.004 1.61 2 2.492 2.96l.807.881c.544.593 1.16 1.266 1.828 1.99.687.745 1.324 1.435 1.573 1.699 2.303 2.236 3.175 5.707 2.276 9.065-.458 1.71-1.2 3.858-2.876 5.31-.852.737-1.88 1.23-3.056 1.467-1.255.251-2.72.217-4.359-.103l-.058-.014-12.252-3.282c-1.333-.357-2.13-1.725-1.775-3.05.07-.262.181-.503.323-.718l-.798-.216c-.747-.2-1.374-.692-1.763-1.385-.398-.706-.494-1.55-.264-2.316.11-.367.29-.701.528-.99-1.507-.453-2.418-2.025-2.037-3.55.19-.766.676-1.407 1.368-1.812.699-.408 1.546-.522 2.326-.313l.823.22c-.035-.31-.017-.63.062-.948.174-.701.622-1.294 1.259-1.665.64-.375 1.42-.48 2.136-.288l8.428 2.259c-.86-1.167-1.668-2.566-1.903-3.162-.092-.233-.149-.481-.168-.737-.07-.955.401-1.942 1.201-2.513zm1.49 1.253c-.251-.105-.482.001-.631.108-.317.226-.512.623-.485.99.006.082.023.16.051.23.243.616 1.585 2.862 2.565 3.83l.008.008c.4.402.478.996.198 1.483-.282.489-.84.722-1.389.58l-.038-.01-9.97-2.67c-.268-.073-.562-.033-.804.11-.232.135-.394.348-.456.596-.12.484.146.982.602 1.163l6.972 1.868.039.012.046.015.033.014.047.021.03.017.046.025.024.018c.016.01.031.02.046.032l.02.017.044.038.019.02.04.04.015.02.037.046.013.02.032.05.011.022c.01.017.02.035.028.053l.01.023.021.054.008.026.016.055.005.027c.004.019.008.037.01.056l.004.03.005.055v.06l-.001.025c0 .014-.003.027-.004.04l-.006.047-.008.042-.01.045-.013.044-.015.041v.002c-.021.054-.047.106-.077.153-.017.027-.033.049-.05.07-.02.026-.037.045-.055.064l-.009.009-.051.049-.014.01-.052.041c-.006.005-.013.008-.02.012-.016.012-.033.023-.05.033l-.021.01c-.018.01-.036.02-.054.028l-.026.01c-.017.008-.034.015-.052.021l-.028.009-.053.015-.03.005c-.018.004-.036.008-.053.01l-.035.003-.05.005h-.064l-.023-.001-.041-.005c-.015-.001-.03-.002-.046-.005-.014-.002-.028-.006-.041-.009l-.046-.01-10.16-2.722c-.333-.089-.695-.04-.995.136-.288.168-.488.431-.567.743-.161.647.235 1.315.884 1.49l10.154 2.72.042.014.043.013.04.018c.013.006.027.01.04.017l.038.022.037.02.037.026c.011.008.023.015.033.024l.033.027.032.028c.01.009.019.02.028.03l.03.03.024.03.028.036.02.03.026.04.008.016.008.015c.008.015.016.029.022.044l.013.031.019.046.01.032.014.049.006.033.01.05.003.036c.002.016.004.032.004.049v.086l-.005.04c-.001.015-.002.03-.005.046-.002.015-.006.029-.009.043l-.01.044c-.015.059-.036.114-.062.166l-.007.012-.035.063-.008.01-.041.06-.01.01c-.014.018-.03.036-.046.053l-.01.01-.05.048-.012.009c-.018.015-.036.03-.054.042l-.012.008-.059.038-.013.006-.061.032-.019.007c-.02.008-.039.017-.06.023l-.05.016-.03.008-.023.004-.06.012-.029.002-.057.005h-.086l-.04-.005-.047-.006c-.014-.002-.028-.006-.041-.009l-.046-.01-7.62-2.03c-.634-.17-1.296.18-1.477.781-.097.321-.055.679.114.98.158.28.405.478.696.556l7.702 2.085.043.014.02.006.02.007.042.018.04.017.038.022.037.02.035.026c.012.008.024.015.034.024l.033.028c.01.01.022.018.032.027l.03.03.028.03.025.033c.01.011.019.022.027.034l.02.031.026.039.016.032.022.042.012.03c.007.016.014.032.019.048l.009.029.015.051.005.027c.004.019.008.037.01.056l.003.028.005.057v.085c-.001.017-.004.033-.006.05l-.004.037c-.005.03-.011.058-.019.087v.003l-.014.041-.013.042-.018.04c-.006.013-.011.027-.018.04l-.021.038-.021.037-.026.036-.023.033-.03.034c-.008.01-.016.02-.026.03l-.032.03c-.01.01-.019.02-.029.028l-.034.027c-.01.008-.02.017-.032.024-.011.009-.024.016-.036.024-.011.007-.022.015-.034.021-.012.008-.025.013-.038.02l-.037.019-.039.015-.039.015c-.013.005-.027.008-.04.012l-.04.012-.063.012-.043.005-.02.002-.043.003h-.087l-.046-.006c-.014-.001-.027-.002-.04-.005l-.047-.01c-.013-.002-.027-.004-.04-.008l-4.601-1.233c-.407-.109-.827.133-.936.54-.108.404.135.822.542.931l12.264 3.285c2.636.51 4.576.188 5.93-.985 1.326-1.15 1.951-2.995 2.348-4.474.743-2.773.044-5.617-1.823-7.423l-.027-.028c-.247-.261-.9-.97-1.606-1.735-.674-.73-1.293-1.407-1.839-2.004l-.807-.882c-.92-1.002-1.795-2.043-2.6-3.093-.314-.409-.412-.552-.463-.631-.097-.151-.23-.265-.386-.33zM14.86.102c.718.191 1.35.647 1.764 1.263l.107.172.429.742c.193-.244.432-.458.713-.627.618-.373 1.354-.473 2.068-.283.654.175 1.231.588 1.611 1.147l.108.172 4.39 7.603c.213-1.438.625-3.005.879-3.594.099-.23.234-.447.401-.641.624-.727 1.654-1.089 2.625-.924.86.147 1.536.672 1.853 1.44.203.49.25 1.026.138 1.551-.007.03-.032.162-.092.63-.16 1.26-.268 2.562-.319 3.871l-.048 1.199c-.033.807-.07 1.721-.107 2.711-.037 1.017-.072 1.959-.08 2.323.023 1.355-.286 2.685-.876 3.9-.27-.632-.667-1.332-1.19-2.097.171-.621.255-1.263.242-1.912v-.039c.01-.36.045-1.328.084-2.372.038-.997.075-1.917.109-2.729l.049-1.2c.054-1.365.167-2.725.336-4.041.066-.514.097-.685.117-.777.038-.176.023-.352-.042-.51-.104-.251-.342-.341-.523-.372-.385-.066-.804.077-1.043.355-.054.063-.097.13-.127.2-.25.581-.837 2.927-.878 4.343l-.002.196v.011c0 .57-.363 1.046-.905 1.19-.504.135-1.02-.053-1.324-.47l-.072-.108-.02-.034-5.192-8.993c-.14-.243-.377-.423-.649-.496-.26-.069-.525-.034-.745.098-.391.235-.56.71-.434 1.137l.042.115 3.63 6.29.02.036.022.043.013.034.02.049.008.032.015.051.005.03.006.027.004.028.002.027.005.058v.027c0 .019 0 .038-.002.057l-.002.025-.007.059-.005.024c-.004.02-.007.039-.012.058l-.008.023c-.005.02-.01.038-.017.057l-.01.023c-.007.018-.014.037-.023.054l-.013.024c-.009.017-.017.034-.027.05l-.015.023c-.01.016-.02.032-.032.047l-.01.012-.009.012-.035.042-.025.024-.036.036c-.01.01-.02.017-.03.025l-.038.03c-.705-.852-1.128-1.42-1.278-1.698-.259-.483-.777-.853-1.408-1.038l-3.873-6.708c-.173-.3-.465-.523-.801-.612-.323-.086-.65-.042-.927.122-.533.32-.734 1-.484 1.564l.06.12 3.376 5.845c-.115.067-.228.142-.338.225-.415.312-.719.672-.937 1.05l-2.29-3.957c-.31-.535-.955-.765-1.489-.552l-.112.053c-.295.158-.518.441-.61.775-.074.267-.058.537.044.774l.057.115 3.997 6.963c.008.013.014.027.02.04.007.013.015.026.02.04l.017.041.016.04.012.043.011.04.008.044.007.042.004.043c0 .014.002.027.003.041v.022l-.357-.09c-.653-.165-1.264-.317-1.832-.457l-1.83-3.173c-.212-.367-.681-.494-1.045-.284-.332.192-.463.601-.319.95l.046.094 1.106 1.917c-.89-.211-1.615-.376-2.176-.494l-.255-.443c-.665-1.153-.326-2.611.747-3.333l.144-.09c.177-.102.36-.179.548-.233l.189-.046-.414-.721c-.39-.674-.488-1.47-.276-2.236.217-.784.744-1.45 1.447-1.828.337-.182.7-.29 1.074-.325-.751-1.394-.288-3.156 1.058-3.965.674-.407 1.472-.514 2.249-.307z"/>
</svg>
